0.01283240
0.02733382
0.05949942
0.09249679
0.09749985
0.08549992
0.12583272
0.13683597
0.15049990
0.01216737
0.02383335
0.04683336
0.05650036
0.07350047
0.08733805
0.10083318
0.10600066
0.13449987
0.01483329
0.02800091
0.04183356
0.06933324
0.07816648
0.09466704
0.11416809
0.11599938
0.12799891
0.01467156
0.03217165
0.04366612
0.05633203
0.07316383
0.08832820
0.10266638
0.12183285
0.13183339
0.01283344
0.02733278
0.04150128
0.05633497
0.07000009
0.09483337
0.09916663
0.11466638
0.12950118
